[gd_resource type="GradientTexture1D" load_steps=2 format=3 uid="uid://dp883gyiijfs4"]

[sub_resource type="Gradient" id="Gradient_xf3p2"]
interpolation_mode = 2
offsets = PackedFloat32Array(0.0075188, 0.150376, 0.813364, 1)
colors = PackedColorArray(0.996078, 0.8, 0.764706, 1, 0.964706, 0.101961, 0.113725, 1, 0.631373, 0.101961, 0.105882, 0.466667, 0, 0, 0, 0)

[resource]
gradient = SubResource("Gradient_xf3p2")
