[gd_scene load_steps=7 format=3 uid="uid://dhiocv2e1a573"]

[ext_resource type="Texture2D" uid="uid://bgs4h2y1vkgau" path="res://Textures/Glow.png" id="1_pxdhk"]

[sub_resource type="StandardMaterial3D" id="StandardMaterial3D_gukj3"]
transparency = 1
blend_mode = 1
cull_mode = 2
no_depth_test = true
shading_mode = 0
vertex_color_use_as_albedo = true
albedo_texture = ExtResource("1_pxdhk")
use_particle_trails = true

[sub_resource type="Gradient" id="Gradient_71ly2"]
offsets = PackedFloat32Array(0, 0.078341, 0.18894, 0.476959, 0.608295, 1)
colors = PackedColorArray(1, 1, 1, 0, 1, 1, 1, 1, 1, 0.239216, 0.678431, 1, 0.901961, 0, 0.560784, 0.929412, 0.34902, 0, 0.866667, 0.466667, 0, 0, 0, 0)

[sub_resource type="GradientTexture1D" id="GradientTexture1D_nsuu4"]
gradient = SubResource("Gradient_71ly2")

[sub_resource type="ParticleProcessMaterial" id="ParticleProcessMaterial_va5rt"]
emission_shape = 1
emission_sphere_radius = 0.2
gravity = Vector3(0, -0.06, 0)
radial_accel_min = 3.0
radial_accel_max = 3.0
scale_min = 0.2
scale_max = 0.2
color_ramp = SubResource("GradientTexture1D_nsuu4")
turbulence_enabled = true
turbulence_noise_scale = 1.0
turbulence_influence_min = 0.05
turbulence_influence_max = 0.05

[sub_resource type="RibbonTrailMesh" id="RibbonTrailMesh_tak5b"]

[node name="Trail" type="GPUParticles3D"]
material_override = SubResource("StandardMaterial3D_gukj3")
amount = 2048
trail_enabled = true
process_material = SubResource("ParticleProcessMaterial_va5rt")
draw_pass_1 = SubResource("RibbonTrailMesh_tak5b")
