[gd_scene load_steps=2 format=3 uid="uid://bje4ipycxjfjr"]

[ext_resource type="Script" path="res://Scripts/KeybindsUIObject.gd" id="1_34f4d"]

[node name="KeybindsUIObject" type="HBoxContainer"]
offset_right = 40.0
offset_bottom = 40.0
size_flags_horizontal = 3
theme_override_constants/separation = 10
script = ExtResource("1_34f4d")

[node name="KeybindName" type="Label" parent="."]
layout_mode = 2
size_flags_horizontal = 3
text = "Name"

[node name="Button" type="Button" parent="."]
custom_minimum_size = Vector2(128, 0)
layout_mode = 2
text = "Button"

[node name="Spacer" type="Control" parent="."]
layout_mode = 2

[connection signal="pressed" from="Button" to="." method="_on_button_pressed"]
